Descriptive Statistics in R
…
```
##   median(Fare)
## 1      14.4542
```

---

## Mode in R 

```r
count(titanic, Fare, sort = TRUE)
```

```
## # A tibble: 248 x 2
##     Fare     n
##    <dbl> <int>
##  1  8.05    43
##  2 13       42
##  3  7.90    38
##  4  7.75    34
##  5 26       31
##  6 10.5     24
##  7  7.92    18
##  8  7.78    16
##  9  0       15
## 10  7.23    15
## # ... with 238 more rows
```
…
